esperanto,english
"abata", "abbatial"
"abateja", "abbatial"
"abdomena", "abdominal"
"abĥaza", "Abkhazian"
"abia", "deal"
"abisena", "Abyssinian, Ethiopian"
"abnorma", "abnormal"
"abomena", "dismal, dreary, ghastly, hideous, horrible, nasty"
"abomeninda", "abhorrent, abominable, alien, awful, hideous, horrible, gruesome"
"abrupta", "abrupt"
"absoluta", "absolute"
"absorba", "absorbent"
"abstrakta", "abstract"
"absurda", "absurd"
"abunda", "abundant"
"acera", "maple, maple-, of a maple"
"acerba", "acerbic, acid, harsh, sour, tart"
"acida", "acid, sour, tart"
"aĉetebla", "for sale"
"adaptita", "adapted"
"adekvata", "adequate"
"adiaŭa", "goodbye-"
"adjektiva", "adjectival"
"administra", "administrative"
"admira", "admiring"
"admirinda", "admirable"
"adoptita", "adopted"
"adorinda", "adorable"
"adstringa", "tart"
"adulta", "adulterous"
"adverba", "adverbial"
"aera", "overground, overhead"
"aerklimatizita", "air-conditioned"
"aermalsana", "airsick"
"aeruma", "airy"
"afabla", "affable, friendly, good-natured, kind"
"afablega", "most charming"
"afekciita", "affected"
"afekta", "affected, artificial"
"afekte milda", "bland, sugary"
"afektema", "affected"
"afektita", "inflated"
"afgana", "Afghan"
"afliktita", "sad"
"afrankita", "post-paid, stamped"
"afrika", "African"
"afrikansa", "Afrikaans"
"afrikazia", "Afro-Asian"
"agaca", "tart"
"agema", "active"
"agita", "inflammatory"
"agrabla", "agreeable, enjoyable, lovely, nice, pleasant"
"agrara", "agricultural, farm"
"agresa", "aggresive"
"agresema", "aggressive"
"agresiva", "aggressive"
"agronomia", "agricultural"
"aĝa", "aged"
"aha", "aha"
"aĵura", "open-work"
"akademia", "academic"
"akcelanta", "accelerative"
"akceptebla", "acceptable"
"akceptinda", "acceptable"
"akceptita", "accepted"
"akcesora", "accessory, secondary"
"akcidentema", "accident-prone"
"akirebla", "obtainable"
"akordiĝema", "manageable, tractable"
"akra", "abrasive, lurid, sharp"
"akraflanka", "angular, sharp-edged"
"akratona", "abrasive, sharp-toned, shrill, snappy, tard"
"akresona", "shrill"
"akrobata", "acrobatic"
"akromatopsia", "colour-blind"
"aktia", "of Actium"
"aktiva", "active"
"aktuala", "current, present, present-day, topical, up-to-date"
"akurata", "accurate, on time, prompt, punctual"
"akustika", "acoustic"
"akuta", "acute"
"akuza", "accusatory"
"akva", "aquatic, water, water-, of water"
"akvoriĉa", "abounding in water"
"al la", "the, to the"
"alabastra", "alabaster"
"alarma", "alarming"
"albana", "Albanian"
"aldonita", "accompanying"
"alegoria", "allegoric"
"alergia", "allergic"
"alfabeta", "alphabetical"
"algebra", "algebraic"
"algluiĝema", "sticky"
"alĝeria", "Algerian"
"alia", "other, another, else"
"alinomita", "differently named"
"alirebla", "accessible"
"alkala", "alkaline"
"alkaleca", "alkaline"
"alkohola", "alcoholic"
"alkoholentenanta", "alcoholic"
"alloga", "attractive"
"alna", "alder, alder-, of an alder"
"alosimila", "aloetic"
"alpara", "at par"
"alparolebla", "approachable, communicative, get-at-able"
"alsaca", "Alsatian"
"alta", "high, lofty, tall"
"alterna", "alternate, alternating"
"altiĝanta", "rising"
"altkreska", "tall"
"altpreza", "pricey"
"altruisma", "altruistic"
"altstatura", "lanky, of high stature, tall"
"aluvia", "alluvial"
"amabla", "dainty, kind, nice, pretty"
"amara", "bitter"
"amata", "loved, beloved"
"amatoreca", "amateurish, small-time"
"ambicia", "ambitious"
"ambigua", "ambiguous"
"ambona", "Amboinese"
"amerika", "American"
"amika", "friendly"
"aminda", "lovable"
"amorfa", "amorphous"
"amortizebla", "redeemable, repayable"
"ampleksa", "ample, bulky, extensive"
"amsterdama", "Amsterdam"
"amuza", "amusing, entertaining, funny"
"analfabeta", "illiterate"
"analitika", "analytic, analytical"
"analoga", "analogous"
"analogia", "analogous"
"anarĥia", "anarchic, anarchical, anarchist"
"anarkia", "anarchic, anarchical, anarchist"
"anasa", "duck, duck-, duck's, of a duck"
"anatomia", "anatomical"
"andaluza", "Andalusian"
"andora", "Andorrian"
"aneksa", "accessory"
"anemia", "anaemic"
"angilforma", "anguilliform, eel-shaped"
"angilglata", "slippery as an eel"
"angilsimila", "eel-like"
"angla", "English"
"anglamika", "pro-English"
"anglikana", "Anglican"
"anglosaksa", "Anglo-Saxon"
"angola", "Angolan"
"angora", "oppressing"
"angula", "gaunt"
"angulhava", "angular"
"anĝela", "angelic"
"animala", "animal"
"anomalia", "deviating, divergent"
"anonima", "anonymous"
"anstataŭa", "deputy"
"antarkta", "Antarctic"
"antarktika", "Antarctic"
"antaŭa", "former, last, previous, prior"
"antaŭdiluva", "antediluvian, very ancient"
"antaŭvidebla", "foreseeable, measurable"
"antaŭzorga", "thoughtful"
"antikoncipa", "contraceptive"
"antikva", "ancient, antique"
"antila", "Antillian"
"antipatia", "nasty"
"antisemita", "anti-Semitic"
"antisepsa", "antiseptic"
"aparta", "apart, particular, separate, special"
"apatia", "apathetic"
"apetita", "appetizing"
"apetitiga", "appetizing"
"apodikta", "apodictic"
"apokalipsa", "apocalyptic"
"apokrifa", "apocryphal"
"apostata", "apostate"
"apostola", "apostolic"
"apra", "of a wild boar"
"apuda", "adjacent"
"araba", "Arabian, Arabic"
"aranea", "of a spider"
"arba", "arboreal, tree, tree-, of a tree"
"arbitra", "arbitrary"
"arda", "ablaze, ardent"
"argentina", "Argentine, Argentinean"
"argila", "earthen, clay, stone"
"arĝenta", "silver"
"arĝentkolora", "silver-coloured"
"arĥaika", "archaic"
"arĥitektura", "architectonic, architectural"
"aristokrata", "aristocratic"
"arja", "Aryan"
"arkaika", "archaic"
"arkeologia", "archaeological"
"arkitektura", "architectonic, architectural"
"arkta", "Arctic"
"armea", "military"
"armena", "Armenian"
"aroga", "arrogant"
"aroganta", "arrogant"
"aroma", "aromatic, fragrant, nutty"
"arta", "artificial, artistic"
"artefarita", "artificial"
"arteza", "artesian"
"artifika", "contrived"
"artista", "artistic"
"asepsa", "aseptic"
"asira", "Assyrian"
"asketa", "ascetic"
"aspektigi bona", "become"
"asteka", "Aztec"
"astma", "asthmatic, wheezy"
"astronomia", "astronomic, astronomical"
"ataka", "aggressive, offensive"
"atakema", "aggressive"
"atena", "Athenian"
"atenta", "attentive"
"atentema", "attentive"
"atika", "Attic"
"atingebla", "accessible"
"atlanta", "Atlantean"
"atlantika", "Atlantic"
"atleta", "athletic"
"atmosfera", "atmospheric"
"atoma", "atomic"
"atonala", "atonal"
"aŭdaca", "audacious, bold, daring, intrepid"
"aŭdavida", "audio-visual"
"aŭdvida", "audio-visual"
"aŭstra", "Austrian"
"aŭstralia", "Australian"
"aŭtenta", "authentic"
"aŭtentika", "authentic, genuine"
"aŭtisma", "autistic"
"aŭtobiografia", "autobiographical"
"aŭtogena", "autogenous"
"aŭtokrata", "autocratic"
"aŭtoktona", "indigenous, native"
"aŭtomata", "automatic"
"aŭtonoma", "autonomic, autonomous"
"aŭtoritata", "authorative"
"aŭtuna", "autumn"
"aŭtuneca", "autumnal"
"ava", "bird, bird-, bird's, of a bird"
"avangarda", "avant-garde"
"avara", "avaricious, miserly, stingy"
"aventura", "adventurous"
"aventurema", "adventurous"
"aventurriĉa", "adventurous"
"averaĝa", "average, mean"
"avida", "avid, eager for, greedy"
"azena", "ass's, donkey, donkey-, of an ass"
"azera", "Azerbaijan"
"azia", "Asian, Asiatic"
"ba", "bah, nuts, pooh"
"babilona", "Babylonian"
"bagatela", "insignificant, trifling"
"bahama", "Bahamian"
"baĥrajna", "Bahraini"
"baldaŭa", "speedy"
"balia", "Balinese"
"balta", "Baltic"
"balzama", "balm, balsam"
"banala", "commonplace, dismal, trite"
"bangladeŝa", "Bangladesh"
"bankrota", "bankrupt"
"bantua", "Bantu"
"barba", "bearded"
"barbadosa", "Barbadian"
"barbara", "barbaric"
"barbhava", "bearded"
"baroka", "baroque"
"basa", "deep"
"bastarda", "bastard"
"batalema", "truculent"
"batava", "Batavian"
"bavara", "Bavarian"
"baza", "basic"
"bedaŭriga", "miserable"
"bedaŭrinda", "regrettable"
"bela", "beautiful, fine, handsome, lovely"
"belega", "lovely"
"beleta", "pretty"
"beletre klera", "well-read"
"belga", "Belgian"
"beliza", "Belizian"
"belsona", "euphonious"
"bengala", "Bengal"
"benigna", "benign"
"benina", "Beninese"
"berlina", "Berlin"
"berna", "Bernese"
"besta", "beastly, bestial"
"besteca", "beastly, bestial"
"bestia", "beastly, bestial, brutal, brutish"
"beta", "beet, beet-, of a beet"
"bezona", "necessary"
"bezonata", "necessary"
"binara", "binary"
"birma", "Burmese"
"bizanca", "Byzantine"
"bizara", "bizarre, odd, weird"
"blanka", "blank, white"
"blinda", "blind"
"blonda", "blond, fair"
"blua", "blue"
"bohema", "Bohemian"
"bolivia", "Bolivian"
"bona", "good, nice, okay"
"bonaspekta", "good-looking"
"bone edukita", "cultivated, cultured, educated"
"bonega", "fine, great"
"boneta", "nice"
"bonfama", "of good repute"
"bonfartanta", "well"
"bongusta", "nice, tasty"
"bongustega", "delicious"
"bonhava", "in easy circumstances, well-to-do"
"bonhumora", "gay, merry"
"bonkaraktera", "good-hearted"
"bonkonduta", "sweet"
"bonkora", "good-hearted, kind"
"bonmaniera", "courteous, polite, well-mannered"
"bonodora", "fragrant, good-smelling, nutty"
"bonstata", "in good condition"
"bosna", "Bosnian"
"botsvana", "Botswanan"
"bova", "bovine, cow, cow-"
"brabanta", "Brabantine"
"braka", "arm, arm, of an arm"
"brava", "brave, gallant"
"brazila", "Brazilian"
"brika", "brick"
"brila", "bright, brilliant"
"brita", "British"
"brokanta", "second hand, secondhand"
"bronza", "bronze"
"broŝura", "paperbacked"
"brua", "noisy"
"brulema", "flammable"
"brulgusta", "burnt"
"bruna", "brown"
"bruneja", "Bruneian"
"brunhara", "brunette"
"brunokula", "browneyed"
"brusela", "Brussels"
"bruska", "abrupt"
"bruta", "brute, harsh"
"bulgara", "Bulgarian"
"bunta", "multicoloured"
"burgunda", "Burgundian"
"burĝa", "bourgeois, middleclass"
"burundia", "Burundian"
"buŝa", "oral"
"butana", "Bhutanese"
"cedema", "accommodating"
"cedra", "cedar, of a cedar"
"cejlona", "Ceylonese"
"centra", "central"
"ceremonia", "formal, measured, stiff"
"certa", "certain, sure"
"cerva", "deer, deer-, of a deer"
"cetera", "additional, remaining, rest of"
"cia", "your"
"cindroblonda", "ash-blond, ash-blonde"
"cindrogriza", "ashen"
"cinika", "cynical"
"cipra", "Cypriot, Cypriote"
"cirkulanta", "about, abroad"
"civila", "civil, civilian, non-military"
"civilizita", "civilized"
"civita", "civic"
"ĉagrena", "deplorable, pitiable, sad"
"ĉarma", "charming, lovely"
"ĉarmega", "most charming"
"ĉasta", "chaste"
"ĉeĉena", "Chechen"
"ĉeestanta", "present"
"ĉefa", "chief, main, major, principal"
"ĉeĥa", "Czech"
"ĉeĥoslovaka", "Czechoslovak, Czechoslovakian"
"ĉevala", "equestrian, horse, horse-, of a horse"
"ĉia", "all, every kind of"
"ĉiama", "everlasting"
"ĉie en la", "all over the, throughout the"
"ĉieesta", "omnipresent, ubiquitous"
"ĉiela", "celestial, heavenly"
"ĉielblua", "sky blue"
"ĉielglora", "heavenly"
"ĉikanema", "censorious"
"ĉilia", "Chilean"
"ĉina", "Chinese"
"ĉiokapabla", "all-round"
"ĉiopova", "almighty, all-powerful, omnipotent"
"ĉioscia", "all-knowing, omniscient"
"ĉipa", "cheap, inexpensive"
"ĉiujara", "annual, yearly"
"ĉiutaga", "daily"
"da", "of"
"dagestana", "Dagestan, Daghestan"
"dana", "Danish"
"danĝera", "dangerous"
"danka", "thankful"
"dankema", "thankful"
"daŭra", "abiding, lasting"
"daŭrigota", "to be continued"
"debutanta", "junior, future, young"
"deca", "decent, fitting, proper, suitable"
"decida", "decisive"
"decidiga", "decisive"
"definitiva", "definite, definitive"
"degenerita", "degenerate"
"dek-dua", "twelfth"
"dek-kvara", "fourteenth"
"dek-kvina", "fifteenth"
"dek-naŭa", "nineteenth"
"dek-oka", "eighteenth"
"dek-sepa", "seventeenth"
"dek-sesa", "sixteenth"
"dek-tria", "thirteenth"
"dek-unua", "eleventh"
"deka", "tenth"
"dekalkulebla", "deductible"
"deklari netaŭga", "declare unfit for use, condemn, scrap"
"dekliva", "sloping"
"dekoka", "eighteenth"
"deksesuma", "hexadecimal"
"dekstra", "right, righthand"
"delfta", "Delft"
"delikata", "dainty, delicate, fine, refined"
"delira", "delirious"
"demokrata", "democratic"
"demona", "demonic"
"denaska", "congenital, inborn, inbred, innate, native"
"densa", "concentrated, dense, thick"
"denta", "dental"
"dependa", "dependent"
"despota", "despotic"
"detala", "detailed"
"devena", "coming"
"devianta", "aberrant"
"deviga", "compulsory"
"devojiĝanta", "aberrant"
"dezerta", "dreary, gaunt"
"dezirinda", "desirable"
"dia", "divine"
"diabla", "diabolical, devilish"
"dieta", "dietary"
"difekta", "broken, out of order"
"difektiĝinta", "broken, broken down"
"difektita", "broken, damaged"
"diferenca", "different"
"difina", "defining, determining"
"difinita", "definite"
"digna", "dignified"
"dika", "bold, corpulent, fat, thick"
"dikventra", "fat"
"diletanteca", "amateurish, small-time"
"diligenta", "diligent, hardworking, industrious"
"diplomita", "certificated, graduate"
"direktanta", "leading"
"diserigebla", "biodegradable, biodestructible"
"disiĝema", "loose, sandy"
"diskreta", "discrete"
"disponebla", "available"
"disŝirita", "tattered"
"distinga", "distinctive"
"distingiĝa", "distinctive"
"distriĝema", "absent, absent-minded, abstracted"
"distrita", "absent-minded, abstracted, distracted"
"diversa", "diverse, varied, various"
"dogma", "dogmatic"
"dolĉa", "gentle, soft, sweet, tender"
"dolĉacida", "bittersweet"
"dolĉamara", "sweet-and-sour"
"dolĉodora", "sweet-smelling"
"dolora", "painful"
"dominikia", "Dominican"
"donacema", "generous"
"dorika", "Dorian, Doric"
"dormema", "sleepy"
"dormetema", "drowsy"
"dorminklina", "drowsy"
"drasta", "drastic"
"drogekscitita", "high"
"dua", "second"
"duaranga", "secondary"
"duba", "doubtful"
"dubinda", "doubtful"
"dudeka", "twentieth"
"dujara", "biennial, two-year, two-year-old"
"dukolora", "bicolour, bicoloured, of two colours"
"duobla", "double, dual"
"duona", "half"
"duondia", "of a demigod"
"duonebria", "tipsy"
"duonluma", "dim"
"dupieda", "two-footed"
"dura", "hard"
"dusenca", "ambiguous"
"dusignifa", "ambiguous"
"duuma", "binary"
"ebena", "even, flat, level, smooth"
"-ebla", "-able, -ible"
"ebria", "drunk, intoxicated"
"ebrieta", "tipsy"
"ebura", "ivory"
"-eca", "-ish, -like"
"edziĝinta", "married"
"edziniĝinta", "married"
"efektiva", "actual, real"
"efektivigita", "completed"
"efika", "effective, effectual, efficacious"
"egala", "equal, even, level"
"egipta", "Egyptian"
"egoisma", "self-interested, selfish"
"egoista", "self-interested, selfish"
"eklezia", "ecclesiastic"
"ekonomika", "economical"
"ekscesa", "excessive, inordinate"
"ekscita", "exciting"
"ekscitita", "agitated"
"eksedziĝinta", "divorced"
"eksedziniĝinta", "divorced"
"ekskluziva", "exclusive"
"eksmoda", "old-fashioned, out of date"
"eksperimenta", "experimental"
"eksperta", "expert"
"ekstaza", "ecstatic"
"ekstera", "external, outer, outside"
"eksterlanda", "alien, foreign"
"eksterordinara", "extraordinary, formidable"
"ekstra", "extra"
"ekstravaganca", "extravagant, high-flown"
"ekstrema", "extreme"
"ektimigita", "startled"
"ektiminta", "startled"
"ekvadora", "Ecuadorian"
"ekvivalenta", "equivalent"
"ekzakta", "exact"
"ekzercita", "experienced, expert, skilful, skilled, skillful, practised"
"ekzotika", "exotic"
"elasta", "elastic"
"elĉerpita", "exhausted, used up"
"elefanta", "elephant, elephant-, elephant's, elephantine, of an elephant"
"eleganta", "elegant"
"elektita", "elected"
"elektra", "electric"
"elektronika", "electronic"
"elementa", "elemental, elementary"
"elfarita", "completed"
"ellasita", "left out, omitted"
"elokventa", "eloquent"
"elprovita", "approved, tried, well-tried"
"elsalvadora", "Salvadorian"
"eluzita", "worn"
"embarasa", "straitened"
"embarasita", "in distress"
"emerita", "retired"
"emfaza", "emphatic"
"eminenta", "eminent"
"emocia", "touching"
"emociita", "seized with emotion"
"en la tuta", "all over the, throughout the"
"energia", "energetic"
"enkaviĝinta", "hollow"
"enlanda", "aboriginal, domestic"
"enmiksiĝema", "meddlesome"
"enorma", "enormous"
"ensorĉiga", "enchanting"
"enŝipiĝinta", "aboard"
"entjera", "integer"
"entreprenema", "enterprising"
"entuziasma", "enthusiastic"
"enua", "boring, weary"
"enuiga", "boring, stodgy"
"envia", "envious"
"enviema", "envious, jealous"
"episkopa", "episcopal"
"epopea", "epic"
"erara", "erroneous, mistaken, wrong"
"erariga", "deceptive, delusive, fallacious"
"erotika", "erotic"
"escepta", "exceptional"
"esenca", "essential"
"esti ...anta", "busy oneself"
"esti bonhava", "be in easy circumstances, be well off, be well-to-do"
"esti deponita", "be deposited, be in the keeping, rest"
"esti ebla", "be possible"
"esti konforma", "be correct, be right"
"esti konsiderata", "be considered, count"
"esti laŭmezura", "fit"
"esti longa", "measure"
"esti malfermetita", "be ajar"
"esti sklaviĝinta", "be addicted"
"estimata", "dear"
"estiminda", "respectable"
"estinta", "former"
"estona", "Estonian"
"estonta", "future"
"estrema", "bossy, masterful"
"eta", "tiny"
"etburĝa", "lower middleclass"
"eterna", "eternal"
"etika", "ethical"
"etosplena", "atmospheric"
"etruska", "Etrurian, Etruscan"
"etspirita", "petty, small-minded"
"eŭropa", "European"
"evangelia", "evangelic"
"eventuala", "contingent, eventual"
"evidenta", "evident, obvious"
"facila", "easy, facile"
"facilanima", "flighty, impulsive"
"facilrompa", "fragile"
"fakta", "factual, real"
"falsa", "false"
"fama", "famous"
"familia", "domestic"
"famkonata", "famous"
"fanatika", "fanatical"
"fantazia", "fantastic, of fantasy"
"fariĝi ekskutima", "fall into abeyance"
"fascina", "absorbing, fascinating"
"fascinita", "fascinated, gripped"
"fatala", "fateful, ill-fated"
"favora", "advantageous, favourable"
"favorata", "favorite, favourite"
"fea", "fairy"
"febra", "feverish"
"federala", "federal"
"feina", "fairy"
"fekunda", "fertile"
"feliĉa", "fortunate, happy"
"fendiĝinta", "cracked"
"fenomena", "phenomenal"
"fera", "iron"
"fermita", "closed, shut"
"feroca", "fierce"
"fervora", "full of zeal, zealous"
"fetora", "bad-smelling, stinking, odorous"
"fetoranta", "bad-smelling, stinking, odorous"
"feŭda", "feudal"
"fia", "nasty"
"fianĉiĝinta", "engaged"
"fianĉiniĝinta", "engaged"
"fiaska", "abortive"
"fidela", "faithful"
"fidinda", "reliable, trustworthy"
"fiera", "proud"
"fifama", "of ill repute"
"figura", "figurative"
"fikcia", "fictional, fictitious"
"fiksa", "fixed"
"filipina", "Philippine"
"filozofia", "philosophic"
"fina", "final"
"financa", "financial"
"finita", "completed, done, finished, over, through"
"finna", "Finnish"
"fipetola", "wanton"
"firma", "fast, firm, stable"
"fizika", "physical"
"flamanta", "ablaze"
"flamkapa", "hot-headed"
"flandra", "Flemmish"
"flanela", "flannel"
"flanka", "incidental, side"
"flava", "yellow"
"flavgriza", "beige"
"fleksebla", "flexible"
"fleksita", "bend"
"floranta", "abloom"
"flua", "fluent"
"fluida", "fluid, liquid"
"flulinia", "streamlined"
"flusa", "flood"
"foja", "occasional"
"fonetika", "phonetic"
"fora", "distant, far, remote"
"foresta", "absent"
"forestanta", "absent"
"forgesema", "forgetful"
"forloga", "repellent, repelling, repulsive"
"formala", "formal"
"forprenebla", "detachable, removable"
"forta", "strong"
"fortika", "firm, robust, sturdy"
"fortimiga", "deterrent, forbidding"
"foruzita", "used up"
"fosforeska", "phosphorescent"
"fragila", "fragile"
"fragmenta", "fragmentary"
"framasona", "masonic"
"franca", "French"
"franda", "alluring, attractive, enticing, tempting"
"franka", "Frankish"
"fraŭla", "single, unmarried"
"fremda", "alien, foreign, strange"
"freneza", "crazy, insane, mad, nuts"
"frenezeta", "crack-brained, daft, loopy, nuts, weird"
"freŝa", "fresh, recent"
"freŝiganta", "refreshing"
"frida", "cold, frigid"
"fripona", "nasty"
"frisa", "Frisian"
"frivola", "frivolous"
"frizona", "Frisian"
"frostigita", "frozen"
"frostiĝinta", "frozen"
"frotpuriga", "abrasive"
"frua", "early"
"fruktodona", "fertile, fruitful"
"fruktoporta", "fruitful"
"fumaĵita", "smoked"
"fundamenta", "fundamental"
"funebra", "mournful"
"funkcipreta", "in working order"
"furioza", "furious"
"fuŝita", "spoiled"
"gaela", "Gaelic"
"gaja", "cheerful, gay, merry"
"gajiga", "amusing"
"galaksia", "galactic"
"galica", "Galician"
"gana", "Ghana"
"gastama", "hospitable"
"gaŭla", "Gallic, Gaulish"
"geedziĝinta", "married"
"geldra", "Guelders"
"genealogia", "genealogical"
"genera", "genital"
"genia", "ingenious"
"geografia", "geographic, geographical"
"gepatra", "parental"
"germana", "German"
"germanema", "pro-German"
"giganta", "gigantic, huge"
"glacia", "icy"
"glata", "smooth"
"glita", "slippery"
"glitiga", "slippery"
"glora", "famous, glorious"
"glueca", "sticky"
"gorda", "Gordian"
"gotika", "Gothic"
"gracia", "graceful"
"granda", "big, great, large"
"grandaĝa", "elderly"
"grandanima", "magnanimous"
"grandega", "enormous, huge, immense"
"grandioza", "grand, grandiose, magnificent, superb"
"grandvalora", "costly, valuable"
"granita", "granite"
"grasa", "fat, fatty, greasy"
"grava", "important, serious"
"graveda", "pregnant"
"greka", "Greek"
"griza", "grey"
"groenlanda", "Greenland"
"groteska", "grotesque"
"gurdita", "hackneyed"
"gvatemala", "Guatemalan"
"gvinea", "Guinea"
"ĝemela", "twin"
"ĝena", "nasty, troublesome"
"ĝenerala", "general, usual"
"ĝenerale akceptita", "accepted"
"ĝentila", "courteous, polite, well-mannered"
"ĝentilhomeca", "gentlemanlike, ladylike"
"ĝentlemaneca", "gentlemanlike"
"ĝentlemanineca", "ladylike"
"ĝermana", "Germanic, Teutonic"
"ĝia", "its"
"ĝiba", "hunch-backed"
"ĝibhava", "hunch-backed"
"ĝisfunda", "thoroughgoing"
"ĝisosta", "diehard"
"ĝoja", "happy, glad"
"ĝojiga", "joyful"
"ĝusta", "correct, exact, proper, right"
"ha", "ah, aha"
"haga", "Hague, of The Hague"
"haladza", "fumy"
"harkovrita", "hairy, hirsute"
"harmonia", "harmonious"
"harstariga", "eerie, grisly, gruesome, macabre"
"hasta", "hurried"
"havaja", "Hawaiian"
"havebla", "available"
"hazarda", "accidental, chance, random"
"hebrea", "Hebrew, Jewish"
"hejma", "domestic"
"hejmeca", "homy"
"hejmsidema", "stay-at-home"
"hela", "bright, clear, light"
"helblua", "bright blue"
"helena", "Hellenian, Hellenic"
"helpa", "auxilary"
"helpema", "accommodating, helpful"
"herboverda", "grass green"
"hereda", "hereditary"
"hereza", "heretical"
"heroa", "heroic"
"hezitanta", "hesitant"
"hezitema", "irresolute, undecided"
"hibrida", "hybrid, mongrel"
"hieraŭa", "yesterday, of yesterday"
"higiena", "hygienic"
"hinda", "Indian"
"hindoeŭropa", "Indo-European"
"hindoĝermana", "Indo-European, Indo-Germanic"
"hindua", "Hindu, Hindoo"
"hipokrita", "hypocritical"
"hipoteza", "hypothetical"
"hirta", "bristly, standing on end, untidy"
"hispana", "Spanish"
"histeria", "hysterical"
"hodiaŭa", "current, present, present-day"
"hoka", "hook"
"hola", "hey"
"holanda", "Dutch"
"homa", "human"
"hondurasa", "Honduran"
"honesta", "above-board, honest"
"honora", "honorary"
"honta", "ashamed"
"hontiga", "humiliating"
"hontigita", "ashamed"
"hontinda", "shameful"
"-hora", "hour's, hours'"
"horizontala", "horizontal, level"
"humana", "humane"
"humida", "damp, humid, moist"
"humila", "humble"
"humiliga", "humiliating"
"humura", "humorous, humourous"
"hunda", "canine"
"hungara", "Hungarian"
"hura", "hurray"
"ĥaosa", "chaotic"
"ĥimera", "chimerical"
"ĥina", "Chinese"
"ĥirurga", "surgical"
"ia", "some kind of"
"ibera", "Iberian"
"ideala", "ideal"
"identa", "identical"
"idiota", "idiotic"
"ilia", "their"
"iluzia", "misleading"
"imitita", "counterfeit, faked, forged"
"impertinenta", "impertinent"
"implikanta", "confusing"
"impona", "imposing"
"impostebla", "subject to tax"
"impotenta", "impotent"
"impresebla", "accessible, impressible, sensitive"
"impresiĝema", "impressable, sensitive"
"imuna", "immune"
"ina", "female, feminine"
"inaŭgura", "inaugural"
"incendia", "incendiary"
"inda", "deserving, worthy"
"indiana", "Indian, Red Indian"
"indiferenta", "immaterial, indifferent"
"indigna", "indignant"
"indiĝena", "aboriginal, native"
"indiĝenaŭstralia", "aboriginal, aborigine"
"individua", "individual"
"indonezia", "Indonesian"
"indulga", "lenient"
"industria", "industrial"
"inerta", "inert"
"infana", "childish"
"infaneca", "childish"
"infekta", "catching, contagious, infectious"
"infektita", "contaminated, infected"
"infera", "infernal"
"inkandeska", "incandescent"
"inklina", "inclined"
"inkluziva", "inclusive"
"inkuba", "nightmarish"
"insida", "insidious"
"insista", "emphatic"
"inspira", "inspiring"
"insulta", "insulting, offensive, opprobrious"
"integra", "integral"
"intelekta", "intellectual"
"inteligenta", "intelligent, sagacious"
"intenca", "intentional"
"intensa", "intense, intensive"
"interesa", "interesting"
"interesega", "absorbing"
"interesita", "gripped, interested"
"intermita", "intermittent"
"interna", "inner, inside, internal"
"internacia", "international"
"intima", "close, intimate"
"invalida", "disabled"
"inversa", "reverse, reversed"
"ionika", "Ionian"
"iraka", "Iraki, Iraqi, Iraquian"
"irana", "Iranian"
"irebla", "passable, practicable"
"irlanda", "Irish"
"ironia", "ironic"
"islama", "Islamic"
"islanda", "Icelandic"
"israela", "Israelian"
"israelida", "Israelite, Israelitish"
"itala", "Italian"
"izola", "isolated, secluded"
"izolita", "remote"
"izraela", "Israeli"
"ja", "certainly, indeed, rather, surely"
"jada", "jade"
"japana", "Japanese"
"java", "Javan, Javanese"
"jemena", "Yemeni"
"jida", "Yiddish"
"jubila", "jubilant"
"jubilea", "jubilee"
"juda", "Jewish"
"jugoslava", "Yugoslav, Yugoslavian"
"juna", "young"
"justa", "fair, just, righteous"
"ĵaluza", "jealous"
"kaba", "Cape"
"kaduka", "decayed, decrepit, dilapidated, lapsed, rickety"
"kalifornia", "Californian"
"kalva", "bald"
"kamboĝa", "Cambodian"
"kameruna", "Cameroon"
"kampara", "rural"
"kampuĉea", "Cambodian"
"kana", "cane, cane-"
"kanada", "Canadian"
"kanadia", "Canadian"
"kanaria", "Canary"
"kantabra", "Cantabrian"
"kaosa", "chaotic"
"kapabla", "able, capable"
"kaprica", "capricious, fitful"
"kapturna", "dizzy"
"kapturniga", "dizzying"
"kara", "dear, expensive, lovely, valuable"
"karaiba", "Caribbean"
"karakteriza", "characteristic"
"karesema", "affectionate, caressing, cuddlesome, cuddly"
"karitata", "charitable"
"karmezina", "crimson"
"karna", "carnal"
"karnomanĝa", "carnivorous"
"karnovora", "carnivorous"
"kartaga", "Carthaginian"
"kartona", "cardboard"
"kartvela", "Georgian"
"kastila", "Castillian"
"kaŝa", "veiled"
"kaŝita", "hidden"
"katastrofa", "catastrophic, miserable"
"kategoria", "firm, peremptory, resolute"
"katolika", "Catholic"
"kaŭĉuka", "rubber"
"kava", "concave, hollow"
"kaveca", "hollow"
"kaverna", "hollow"
"kavokula", "hollow-eyed"
"kazaĥa", "Kazak, Kazakh"
"kelka", "some"
"kelke da", "a few, some"
"kelta", "Celtic"
"kenja", "Kenyan"
"kia", "what kind of, what sort of"
"kiel malproksima", "how far"
"kimra", "Welsh"
"kioma", "how many, what number"
"kirgiza", "Kyrgyz"
"kirurga", "surgical"
"klara", "clear, distinct, plain"
"klarvida", "clairvoyant"
"klasika", "classic, classical"
"klera", "cultured, educated, learned, well-informed"
"klimata", "climatic"
"klimatizita", "air-conditioned"
"knaba", "boyish"
"knabeca", "boyish"
"kohera", "coherent, connected, consistent"
"koketa", "coquettish"
"kolektiva", "collective, joint"
"kolera", "angry, cross"
"kolerega", "furious"
"kolombia", "Colombian"
"kolonia", "colonial"
"kolorpendinta", "pale, sallow"
"kolosa", "colossal, huge"
"komandanta", "in charge, in command"
"komenca", "initial"
"komforta", "comfortable"
"komika", "comic, comical, funny"
"kompakta", "compact"
"kompatema", "charitable, merciful"
"kompatinda", "dismal, miserable, pitiful, poor"
"kompetenta", "able, competent"
"kompleksa", "complex"
"kompleta", "absolute, complete"
"kompletiga", "complementary, supplementary"
"kompleza", "kind, obliging"
"komplezema", "kind, obliging"
"komplika", "complicated"
"komprenebla", "understandable"
"komprenita", "understood"
"komuna", "common, joint"
"konata", "well-known"
"koncentrita", "concentrated, strong"
"koncerna", "concerned, in question"
"konciza", "concise"
"konfidenca", "confidential"
"konforma", "conforming, fitting"
"konfuza", "jumbled up"
"konfuzanta", "confusing"
"konfuzita", "dazed, perplexed, upset"
"kongrua", "compatible, congruent"
"konkludiga", "conclusive"
"konkreta", "concrete"
"konscia", "aware, conscious"
"konscienca", "conscientious"
"konsekvenca", "consistent"
"konsentema", "accommodating, good-hearted"
"konservativa", "conservative"
"konservema", "conservative"
"konsiderema", "thoughtful"
"konsiderinda", "considerable, sizable"
"konsilinda", "advisable"
"konstanta", "constant, continual, permanent, sustained"
"konsternanta", "startling"
"konsterniĝinta", "upset"
"konsternita", "taken aback, upset"
"konstipita", "constipated"
"konstitucia", "constitutional"
"kontaĝa", "catching, contagious, infectious"
"kontanta", "cash, in cash"
"kontempla", "contemplative"
"kontenta", "contented, pleased, satisfied"
"kontentiga", "satisfactory"
"kontestebla", "debatable, questionable"
"kontinua", "lasting"
"kontraktita", "job-"
"kontraŭa", "alien, contrary"
"kontraŭkoncipa", "contraceptive"
"kontraŭsepsa", "antiseptic"
"kontraŭsocia", "antisocial, unsocial"
"kontraŭstarema", "intractable, obstinate, refractory, stubborn"
"kontraŭtanka", "anti-tank"
"konvena", "appropriate, becoming, seemly, suitable"
"kora", "cardiac, cordial, hearty"
"korea", "Korean"
"korekta", "correct, right"
"korfavora", "charitable, merciful"
"korinta", "Corinthian"
"korintika", "Corinthian"
"korligita", "close, dear to the heart"
"korpa", "bodily, body, body-, corporal, corporeal, of the body, physical"
"korpremita", "dejected, depressed"
"korpulenta", "fat, stout"
"korsika", "Corsican"
"korsikia", "Corsican"
"kortuŝa", "moving, touching"
"kortuŝita", "seized with emotion"
"kosa", "Xhosa"
"kosta", "dear, expensive"
"kostarika", "Costa Rican"
"kotkovrita", "muddy, mud-stained"
"kovrita", "covered"
"kraketa", "brittle, crisp, crunchy"
"kredebla", "plausible"
"kredema", "credulous"
"kredinda", "plausible"
"kreola", "Creole"
"krepuska", "dim"
"krevinta", "cracked"
"krima", "criminal"
"kripla", "crippled, infirm"
"kristala", "crystal"
"kristana", "Christian"
"kriza", "critical"
"kroata", "Croatian"
"kroma", "accidental, additional"
"kruda", "crude, raw, rough"
"krudlanŝtofa", "baize"
"kruela", "cruel"
"kruelega", "horrible"
"kruta", "abrupt, steep"
"ksera", "xerographic"
"kserografia", "xerographic"
"kuba", "Cuban"
"kuirita", "cooked"
"kulpa", "guilty"
"kulpiga", "accusatory"
"kunkulpa", "accessory"
"kunnaskita", "congentital, inborn, inbred, innate, native"
"kupra", "copper"
"kuraca", "medical"
"kuraĝa", "brave, courageous, valiant"
"kurba", "bent, curved"
"kurda", "Kurdish"
"kurioza", "curious, interesting, quaint"
"kurta", "short"
"kutima", "accustomed, customary, used to, usual, wonted"
"kvadrata", "square"
"kvadratita", "checked, chequered"
"kvakera", "Quaker"
"kvalifikita", "able"
"kvara", "fourth"
"kvazaŭĉasta", "demure"
"kvazaŭdecmora", "demure"
"kvazaŭpruda", "demure"
"kverka", "oak, oaken"
"kvieta", "calm, quiet"
"kviettemperamenta", "staid"
"kvina", "fifth"
"kvita", "even, paid up, paid-up"
"la", "the"
"la cia", "yours"
"la ilia", "theirs"
"la lia", "his"
"la mia", "mine"
"la nia", "ours"
"la sama", "the same"
"la ŝia", "hers"
"la via", "yours"
"laborema", "hardworking"
"laborintensiva", "labor-intensive, labour-intensive"
"labormaltaŭga", "disabled, unfit for work"
"labornekapabla", "disabled, unfit for work"
"laborpreta", "in working order"
"laca", "tired"
"lacega", "exhausted, tired out, worn out"
"lada", "sheet metal, tin, tin plate"
"lafa", "lava"
"laika", "lay"
"laksa", "loose"
"lama", "lame"
"lana", "wool"
"lanta", "slow"
"laosa", "Laotian"
"lapona", "Lapp, Lappish"
"larĝa", "broad"
"lasta", "last"
"latina", "Latin"
"latinida", "Romance"
"latuna", "brass"
"latva", "Latvian, Lettish"
"laŭdinda", "commendable"
"laŭgrada", "gradual"
"laŭlegenda", "legendary"
"laŭleĝa", "legal"
"laŭmoda", "fashionable"
"laŭnominala", "at par"
"laŭsistema", "systematic"
"laŭta", "loud"
"laŭvorta", "literal"
"lavpurigebla", "washable"
"lazura", "sky blue"
"leda", "leather"
"legebla", "legible"
"legenda", "legendary"
"leginda", "worth reading"
"leĝera", "light"
"lernita", "acquired, learnt"
"lerta", "clever, dexterous, skillful"
"levanta", "Levantine"
"lia", "his"
"libana", "Lebanese"
"libera", "free"
"liberala", "liberal"
"liberia", "Liberian"
"libervola", "voluntary"
"libia", "Libyan"
"licia", "Lycian"
"lidia", "Lydian"
"ligna", "wooden"
"likva", "liquid"
"likvida", "liquid"
"limiga", "restrictive"
"limigita", "confined, limited, restricted"
"limtuŝanta", "adjacent"
"lingva", "linguistic"
"lingvistika", "linguistic"
"literatura", "literary"
"litmalsana", "bedridden, confined to one's bed, laid up"
"litova", "Lithuanian"
"livona", "Livonian"
"logika", "logical"
"loĝanta", "housed"
"lojala", "faithful, loyal"
"loka", "local"
"longa", "long"
"longetempa", "long, of long standing, prolonged, protracted"
"luebla", "for rent"
"luigita", "hired out"
"luksa", "deluxe, de luxe, luxurious"
"luksemburgia", "Luxembourg, Luxemburg"
"luma", "bright, light"
"luna", "lunar"
"macedona", "Macedonian"
"madagaskara", "Madagascan"
"magia", "magical"
"magneta", "magnetic"
"magra", "gaunt, lean, meager, skimpy, skinny, thin"
"majesta", "majestic"
"makabra", "macabre"
"makedona", "Macedonian"
"maksimuma", "maximum"
"mala", "contrary, opposite"
"malabunda", "in short supply"
"malafabla", "brutal, gruff, harsh, rough, sour, surly, unkind, unpleasant"
"malafablega", "grim"
"malagrabla", "bleak, dismal, dreary, horrible, ghastly, grisly, nasty"
"malaja", "Malay"
"malajzia", "Malaysian"
"malakra", "blunt"
"malalta", "low"
"malaltgermana", "Low German"
"malaltvalora", "inferior"
"malamika", "hostile"
"malaminda", "nasty"
"malaprobinda", "blameworthy, censurable, condemnable, objectionable"
"malavantaĝa", "detrimental, disadvantageous, prejudicial"
"malavara", "generous"
"malavia", "Malawian"
"malbela", "nasty, ugly"
"malbelega", "dismal, dreary, horrible, nasty"
"malbona", "bad, miserable, nasty, poor"
"malbonfartanta", "not well, unwell"
"malbonhumora", "cross, peevish, pettish, petulant"
"malbonkvalita", "inferior"
"malĉasta", "lewd"
"maldekstra", "left"
"maldelikata", "coarse, crude, harsh"
"maldetala", "general, vague"
"maldika", "gaunt, lean, slender, thin"
"maldiligenta", "lazy"
"maldiskreta", "meddlesome"
"maldolĉa", "bitter"
"maldorma", "awake"
"malebena", "bumpy"
"malebria", "sober"
"malediva", "Maldivian"
"malegala", "different"
"maleleganta", "coarse, crude"
"malespera", "desperate"
"malestiminda", "abject"
"malfacila", "difficult, hard, inconvenient"
"malfekunda", "barren, infertile"
"malfeliĉa", "unhappy"
"malfeliĉiga", "miserable"
"malfermetita", "ajar"
"malfermita", "open"
"malfida", "suspicious"
"malfidela", "unfaithful"
"malfidema", "suspicious"
"malflua", "ebb"
"malforta", "faint, light, weak"
"malfreŝa", "stale"
"malfreŝaera", "close, frowsty, stuffy"
"malfrua", "late, tardy"
"malgaja", "bleak, dismal, dreary, gaunt, miserable, sad, somber"
"malglata", "coarse, rough"
"malgracia", "awkward"
"malgranda", "diminutive, little, small"
"malgrandega", "tiny"
"malgrasa", "gaunt, thin"
"malĝentila", "rude"
"malĝentilega", "as bold as brass, incredibly insolent, shameless"
"malĝoja", "dismal, gaunt, miserable, sad"
"malĝojiga", "dismal, miserable"
"malĝusta", "incorrect, wrong"
"malhela", "bleak, dark, dismal, dreary"
"malhelblua", "dark blue"
"malhele blua", "dark blue"
"malhonesta", "nasty"
"malia", "Malian"
"malica", "malicious, mischievous, nasty, vicious"
"malice ruza", "shrewd"
"maligna", "vicious"
"malinklina", "averse"
"malinteligenta", "obtuse"
"maljuna", "old"
"malkara", "cheap, inexpensive"
"malkaŝa", "above-board"
"malklara", "indistinct"
"malkompakta", "loose, sandy"
"malkonstruigebla", "destructible"
"malkonvena", "not fitting, unseemly"
"malkuraĝa", "afraid"
"mallaborema", "slothful"
"mallaksa", "constipated"
"mallarĝa", "narrow"
"mallerta", "awkward"
"malloga", "repellent, repelling, repulsive"
"mallonga", "brief, short"
"mallongdaŭra", "short-lived"
"malluma", "dark, dim"
"malmasiva", "hollow"
"malmilda", "bleak"
"malmodesta", "arrogant"
"malmola", "hard"
"malmorala", "abandoned, nasty"
"malmulta", "little"
"malmulte da", "little"
"malmultekosta", "cheap, inexpensive"
"malnaiva", "sophisticated"
"malnobla", "abject, base, low, nasty, vile"
"malnova", "old"
"malobea", "disobedient, insubordinate"
"malobeema", "disobedient, insubordinate"
"malofta", "rare"
"malpara", "odd"
"malpermanenta", "temporary"
"malpeza", "light"
"malplaĉa", "nasty"
"malplena", "empty, void"
"malpliigebla", "abatable"
"malpolurita", "frosted"
"malprava", "wrong"
"malprofunda", "shallow, superficial"
"malproksima", "distant, far, remote"
"malpropra", "another man's, other people's"
"malpura", "dirty, filthy, nasty, soiled, unclean"
"malpurega", "nasty"
"malrapida", "slow"
"malriĉa", "miserable, poor"
"malsaĝa", "foolish"
"malsama", "different"
"malsamkreda", "dissenting"
"malsana", "ill, sick"
"malsaneta", "not well, upset"
"malsata", "hungry"
"malseka", "wet"
"malseketa", "moist"
"malserena", "dismal, dreary"
"malsimetria", "asymmetric, asymmetrical, dissymmetric"
"malsimila", "different"
"malsimpatia", "nasty"
"malsimpla", "complex, complicated"
"malsincera", "underhanded"
"malsovaĝa", "tame"
"malsprita", "dull, stupid"
"malsubstanca", "insubstantial, light"
"malsukcesa", "abortive"
"malsupera", "inferior"
"malŝparita", "spoiled, wasted"
"malta", "Maltese"
"maltimema", "daring"
"maltrankvila", "anxious"
"maltrankviliga", "anxious, grave, serious"
"malutila", "harmful"
"malvarma", "bleak, chilly, cold"
"malvarmeta", "cool"
"malvasta", "close, cramped"
"malvera", "false, untrue"
"malzorga", "careless, neglectful, negligent, remiss"
"manĉua", "Manchurian"
"manĉura", "Manchurian"
"manĝebla", "edible"
"mankanta", "absent"
"mara", "maritime, sea, sea-, of the sea"
"marborda", "coast, coast-, coastal, of the coast"
"mariste blua", "navy blue"
"marmora", "marble"
"maroka", "Moroccan"
"masiva", "massive"
"maskla", "male"
"matematika", "mathematical"
"materia", "material"
"matura", "mature, ripe"
"mava", "bad"
"meblita", "furnished"
"medicina", "medical"
"meditema", "thinking, thoughtful, meditative, pensive"
"megera", "bitchy, shrewish"
"meĥanika", "mechanical"
"mekanika", "mechanical"
"meksikia", "Mexican"
"melanezia", "Melanesian"
"melankolia", "bleak, dismal, dreary, gaunt, melancholy"
"melodia", "tuneful"
"melodrama", "melodramatic"
"memevidenta", "self-evident"
"memfida", "confident, self-assured"
"memorinda", "memorable"
"memstara", "independant"
"memvola", "willing"
"mensa", "mental"
"mense postrestanta", "backward, mentally deficient, retarded"
"metaforriĉa", "full of images"
"metala", "metal, metallic"
"metoda", "methodical"
"metodista", "Methodist"
"metra", "metric"
"meza", "average, mean, middle"
"mezaĝa", "middle-aged"
"mezmalnovnederlanda", "Middle Dutch"
"meznederlanda", "Middle Dutch"
"meznombra", "average, mean"
"mezurita", "measured"
"mia", "my"
"migdalokula", "almond-eyed"
"migrema", "migrant"
"milda", "gentle, mild"
"milita", "military"
"militema", "martial, warlike"
"militista", "military"
"minaca", "menacing, threatening"
"minacanta", "menacing, threatening"
"minerala", "mineral"
"minimuma", "minimum"
"ministra", "ministerial"
"minoritata", "minority"
"miopa", "near-sighted, short-sighted"
"mirakla", "miraculous"
"miriga", "amazing, astonishing"
"mirinda", "wonderful"
"misformita", "deformed"
"mistera", "abstruse, mysterious"
"mistika", "mystic, mystical"
"mita", "mythical"
"mizera", "abject, dismal, meager, miserable, wretched"
"mnemonika", "mnemonic"
"modera", "moderate, reasonable"
"moderkosta", "reasonable"
"moderna", "modern"
"moderpreza", "reasonable"
"modesta", "modest"
"mola", "soft"
"moldava", "Moldavian"
"moluka", "Moluccan"
"momenta", "momentary"
"monaka", "Monegasque"
"monata", "monthly"
"mongola", "Mongolian"
"monotona", "monotonous"
"monstra", "monstrous"
"montenegra", "Montenegrin"
"montrebla", "apparent"
"montriĉa", "mountainous"
"monumenta", "monumental"
"morala", "moral"
"morganata", "morganatic, morganatical"
"morgaŭa", "of tomorrow"
"mormona", "Mormon"
"morna", "desolate, dismal, dreary, gaunt, gloomy, mournful"
"moroza", "fretful, morose, peevish, sullen"
"morsa", "Morse code"
"morta", "dead"
"mortema", "mortal"
"mortiga", "deadly"
"mortinta", "dead"
"mortpala", "ghastly"
"moskva", "Muscovite"
"moŝta", "honorary"
"mova", "locomotive, motorial"
"movebla", "mobile"
"mozambika", "Mozambican"
"mucida", "moldy, mouldy, musty"
"muka", "mucous"
"multa", "a lot of, much"
"multampleksa", "comprehensive"
"multe da", "a lot of, much, plenty of"
"multekosta", "costly, dear, expensive, pricey"
"multnacia", "multinational"
"multokupita", "busy"
"multpeza", "weighty"
"multsignifa", "significant"
"multvojaĝinta", "travelled, widely-travelled"
"murdema", "bloodthirsty"
"muska", "mossy"
"muskola", "muscular"
"muskverda", "moss-green"
"muta", "dumb, mute, speechless"
"muzika", "musical"
"muzikema", "musical"
"nacia", "national"
"naiva", "naif, na@f, naive, na@ve"
"najbara", "adjacent, nearby, neighbouring"
"najlofiksita", "fixed with nails"
"namibia", "Namibian"
"nana", "dwarf, midget"
"napola", "Neapolitan"
"natura", "natural"
"naturdotita", "gifted, talented"
"naŭa", "ninth"
"naŭza", "abhorrant, abominable, alien, disgusting, nasty, nauseous"
"naza", "nasal"
"nazia", "Nazi"
"neatendita", "abrupt"
"neatenta", "careless, negligent"
"nebrila", "dim"
"nebula", "fuzzy, misty"
"necerta", "uncertain"
"necesa", "necessary"
"necivilizita", "uncivilized"
"nedaŭra", "temporary"
"nederlanda", "Dutch"
"nedigestebla", "stodgy"
"nedividebla", "indivisible"
"neebla", "impossible"
"nefermita", "open"
"nefiksita", "loose"
"nefruktodona", "barren, infertile, sterile, unfruitful"
"negativa", "negative"
"neglektema", "careless, neglectful, negligent, remiss"
"negra", "Negro"
"negrava", "unimportant"
"neĝblanka", "snow white"
"neĝkovrita", "snowy"
"neintima", "detached"
"nekartografita", "uncharted"
"neklarigebla", "inexplicable"
"nekombita", "unkempt"
"nekompleta", "incomplete"
"nekomprenebla", "inconceivable, unintelligible"
"nekonata", "unknown"
"nekonsekvenca", "inconsistent"
"nekredebla", "incredible"
"nekuirita", "raw, uncooked"
"nekulturita", "dreary"
"nekutima", "unusual"
"nelimigita", "absolute"
"neloĝata", "gaunt"
"nemalhavebla", "indispensable"
"nemalplilongigita", "unabbreviated"
"nematura", "unripe"
"nenatura", "artificial"
"nenecesa", "needless"
"nenombrebla", "countless"
"nenormala", "abnormal"
"neokupita", "free, unoccupied, vacant"
"neona", "neon"
"neordinara", "unordinary"
"neorganika", "inorganic"
"nepagita", "back, outstanding, overdue"
"nepala", "Nepalese"
"nepartia", "neutral"
"nepenetrebla", "impenetrable"
"nepra", "absolute"
"neprofitema", "disinterested"
"nepublika", "private"
"neregula", "abnormal"
"nerezistebla", "irresistible"
"nerva", "nervous"
"nervoza", "nervous"
"nesatigebla", "insatiable"
"nesignifa", "insignificant"
"nesimetria", "asymmetric, asymmetrical, dissymmetric"
"nesondebla", "abysmal"
"neŝanĝiĝema", "constant, continual, lasting, steady"
"neta", "cleanly cut, net, neat, precize"
"netaksebla", "priceless"
"neŭrenberga", "Nuremberg"
"neŭtrala", "impartial, neutral"
"nevenkebla", "invincible"
"nevera", "false, untrue"
"nevidata", "unseen"
"nia", "our"
"nigeria", "Nigerian"
"nigra", "black"
"nigrega", "pitch black"
"niĝeria", "Nigerien"
"nikaragva", "Nicaraguan"
"nilona", "nylon"
"nobela", "of noble birth"
"nobla", "noble"
"noca", "harmful"
"nokta", "nocturnal"
"noktblinda", "night-blind"
"nomada", "nomadic"
"nominalvalora", "at par"
"norda", "northern"
"nordafrika", "North African"
"nordamerika", "North American"
"nordkorea", "North Korean"
"norma", "normal"
"normala", "normal"
"normanda", "Norman"
"norvega", "Norwegian"
"nova", "new, novel"
"novkaledona", "New Caledonian"
"novzelanda", "New Zealand"
"nuba", "cloudy"
"nubia", "Nubian"
"nuda", "bare, naked, nude"
"nudpieda", "barefoot"
"nuklea", "nuclear"
"nuna", "current, present"
"nuntempa", "current, present"
"nura", "mere, solitary, sole"
"obea", "obedient"
"obeema", "obedient"
"oblikva", "oblique, slanting"
"obscena", "obscene"
"obskura", "obscure"
"obstina", "obstinate, stubborn"
"obtuza", "dull, obtuse"
"oceana", "oceanic"
"ofenda", "abusive, nasty"
"ofendita", "affronted, insulted, hurt, offended"
"ofensiva", "aggressive, offensive"
"ofica", "official"
"oficiala", "official"
"ofta", "frequent"
"oka", "eighth"
"okangula", "octagonal"
"okcidenta", "western"
"okcidenteŭropa", "Western European, West European"
"okcidentgermana", "West German"
"okcidentindia", "West Indian"
"okobla", "eightfold, octuple"
"okulta", "occult"
"okuma", "octal"
"okupata", "busy"
"okupita", "busy"
"olda", "old"
"olimpika", "olympic"
"oportuna", "convenient, handy, opportune"
"optimisma", "optimistic"
"ora", "gold, golden"
"oranĝa", "orange"
"oranĝkolora", "orange-coloured"
"oratora", "oratorical"
"orblonda", "golden"
"orda", "tidy"
"ordinara", "common, ordinary, usual"
"orfa", "orphan"
"orflava", "golden yellow"
"organika", "organic"
"orgia", "orgiastic"
"orienta", "eastern, Oriental"
"orientgermana", "East German"
"orienthinda", "East-Indian"
"origina", "aboriginal, original"
"originala", "original"
"orkolora", "gold-coloured, golden"
"ornama", "ornamental"
"ornamita", "adorned"
"orta", "right-angle, square"
"ortodoksa", "orthodox"
"osteca", "bony"
"otomana", "Ottoman"
"ovala", "oval"
"paca", "peaceful"
"pacama", "peaceful, peaceloving"
"pacienca", "patient"
"pafvundita", "winged, wounded"
"pagana", "pagan"
"pala", "pale, sallow"
"palestina", "Palestinian"
"panama", "Panamanian"
"pantalonportanta", "trousers wearing"
"para", "even"
"parada", "pretentious"
"paradoksa", "paradoxical"
"paragvaja", "Paraguayan"
"paralela", "parallel"
"paraliziĝinta", "paralysed"
"paranoja", "paranoid"
"parenca", "related"
"pariza", "Parisian"
"parlamenta", "parliamentary"
"paroĥa", "parochial"
"paroka", "parochial"
"parolema", "talkative"
"partia", "biased, partial"
"pasia", "passionate"
"pasinta", "last"
"patriota", "patriotic"
"paŭta", "dismal"
"peka", "sinful"
"pentanta", "contrite, penitent, repentant"
"perdita", "lost"
"perfekta", "perfect"
"perfida", "treacherous"
"perfidema", "treacherous"
"periferia", "peripheral"
"perpendikulara", "perpendicular"
"perpleksa", "perplexed, taken aback"
"persa", "Persian"
"persista", "persistent"
"persona", "personal"
"perua", "Peruvian"
"perversa", "perverse"
"pesimisma", "pessimistic"
"petola", "frolic, frolicsome, petulant"
"petolema", "mischievous, playful"
"peza", "burdensome, heavy, onerous"
"pia", "pious"
"pigra", "lazy"
"pika", "nasty"
"pinta", "pointed, spiked"
"pionira", "pioneer"
"pirenea", "Pyrenean"
"pitoreska", "picturesque"
"plaĉa", "pleasing"
"planeda", "planetary"
"plasta", "plastic"
"plastika", "plastic"
"plata", "flat"
"plej bona", "best"
"plej bonega", "best of all, very best"
"plej ekstera", "outer"
"plej grava", "most important"
"plej malbona", "worst"
"plej posta", "hind, hindmost"
"plej proksima", "nearest, next"
"plej supra", "upper"
"plena", "complete, full"
"plenaĝa", "adult, grown-up, full-grown"
"plenkreska", "adult, full-grown"
"plenplena", "brimming, replete"
"plenumita", "completed"
"plenzorga", "anxious"
"plezura", "agreeable, pleasant"
"plezuriga", "pleasurable"
"pli aĝa", "elder, older"
"pli bona", "better"
"pli detala", "further"
"pli malbona", "worse"
"pli malproksima", "farther"
"pli proksima", "nearer"
"plia", "another, one more"
"plua", "additional, another"
"plugebla", "arable"
"plumba", "lead"
"plurnacia", "multinational"
"poezia", "poetic"
"pola", "Polish"
"polinezia", "Polynesian"
"politika", "political"
"polusa", "polar"
"polva", "dusty"
"pompa", "resplendant"
"populara", "popular"
"porka", "pig, pig-, of a pig"
"pornografia", "pornographic"
"portebla", "portable"
"portugala", "Portuguese"
"posta", "hind, hindmost"
"postveninta", "subsequent"
"potenca", "powerful"
"povra", "poor"
"pozitiva", "positive"
"praktika", "practical"
"praloĝanta", "indigenous, native"
"prava", "right, true"
"precipa", "main, predominant, principal"
"preciza", "accurate, precise"
"prema", "burdensome, onerous"
"premita", "oppressed"
"prepara", "preliminary, preparatory, prior"
"prestiĝa", "glamourous, prestigious"
"preta", "finished, ready, through"
"pretendema", "arrogant"
"preterlasema", "careless, neglectful, negligent, remiss"
"preterlasita", "left out, omitted"
"preztrompita", "taken in"
"primara", "primary"
"primitiva", "primitive"
"principa", "firm in one's principle, firm in one's principles"
"priskriba", "descriptive"
"pritraktata", "pending"
"privata", "private"
"priveturebla", "passable, practicable"
"privilegia", "privileged"
"probabla", "probable"
"proedziĝa", "by marriage, related by marriage"
"profesia", "professional"
"profita", "credit, surplus"
"profunda", "deep, profound"
"profundsenca", "abstruse"
"prokrastita", "in abeyance"
"proksima", "close, near, nearby, next"
"proksimuma", "approximate"
"proporcia", "proportional"
"propra", "own, personal"
"protekta", "protectionist"
"protektisma", "protectionist"
"protestanta", "Protestant"
"provenca", "Proven@al"
"provinca", "provincial"
"provizora", "provisional, temporary"
"pruda", "prudish"
"prudenta", "prudent, reasonable, sensible"
"prujna", "frosted, hoar"
"prusa", "Prussian"
"psika", "psychic"
"psikiatra", "psychiatric"
"psikologa", "psychological"
"publika", "public"
"pulvora", "powdery"
"pura", "clean, pure"
"puritana", "puritan"
"purpura", "purple"
"putra", "bad, rotten"
"putrema", "perishable"
"rabia", "mad, rabid"
"racia", "rational"
"radikala", "radical"
"rajda", "mounted"
"rajdanta", "mounted"
"ranca", "rancid"
"rapida", "fast, quick, rapid, speedy, swift"
"rapidresponda", "to the point"
"rara", "rare, precious"
"raŭka", "hoarse"
"rava", "delightful, lovely"
"raviĝinta", "delighted"
"reakcia", "reactionary"
"reala", "actual, practical, real"
"reciproka", "mutual, reciprocal"
"reformita", "reformed"
"regiona", "regional"
"regula", "even, regular"
"reĝa", "regal, royal"
"rejnlanda", "Rhineland"
"rekomendinda", "recommendable"
"rekonebla", "recognizable"
"rekta", "direct, straight"
"rekte tra", "throughout"
"relativa", "relative"
"religia", "religious"
"renoma", "famous"
"respektinda", "respectable"
"respektiva", "respective"
"responda", "responsible"
"respondeca", "responsible"
"respublika", "republican"
"restanta", "abiding, left, left over, remaining"
"retroira", "backward, retrograde"
"revolucia", "revolutionary"
"ribelema", "insubordinate, rebellious"
"riĉa", "rich, wealthy, well-off"
"riĉega", "immensely rich, rolling in money"
"ridinda", "ridiculous"
"rigida", "rigid, stiff"
"rigora", "rigorous, stringent"
"rimarkinda", "noteworthy, remarkable"
"ripetita", "repeated"
"riproĉinda", "reprehensible"
"riska", "hazardous, risky"
"rita", "ritual"
"ritma", "rhythmic"
"roma", "Roman"
"romanika", "Romanesque"
"romantika", "romantic"
"romia", "Roman"
"rompiĝema", "breakable, brittle, fragile"
"rompiĝinta", "broken"
"rompita", "broken"
"ronda", "round"
"rostita", "roasted"
"roza", "pink"
"rozkolora", "pink"
"ruĝa", "red"
"rumana", "Romanian, Rumanian"
"rumanĉa", "Rhaeto-Romance, Romanche"
"rusa", "Russian"
"rusta", "rusty"
"ruza", "clever, cunning, sly, smart"
"S-ta", "St."
"sabla", "sand, sand-, of sand"
"sacerdota", "priestly"
"sadisma", "sadistic"
"sagaca", "astute, shrewd"
"saĝa", "sagacious, sage, wise"
"saksa", "Saxon"
"sala", "salty"
"sama", "same"
"samaria", "Samaritan"
"samspeca", "similar"
"samtempa", "simultaneous"
"sana", "healthy, well"
"sanga", "bloody"
"sangokovrita", "blood-stained, covered with blood"
"sangomakulita", "blood-stained, covered with blood"
"sangomanka", "anaemic"
"sangoruĝa", "blood red, blood-red"
"sankorpa", "able-bodied"
"sankta", "holy, sacred"
"sanktiga", "sanctifying"
"sardinia", "Sardinian"
"sarkasma", "sarcastic"
"sata", "full, replete, satisfied"
"satana", "Satanic"
"sciavida", "inquisitive"
"scienca", "scientific"
"scivola", "curious, inquisitive"
"scivolema", "inquisitive"
"seka", "dry"
"sekreta", "secret"
"seksa", "generative, sexual"
"sekura", "safe, secure"
"sekva", "next"
"sekvanta", "following, next"
"sekvinta", "next"
"sekvonta", "following, next"
"semida", "Semitic"
"senalkohola", "non-alcoholic"
"senamika", "friendless"
"senarma", "unarmed"
"senatenta", "careless, negligent"
"senbarba", "beardless"
"senbezona", "needless"
"senbrida", "lawless, licentious, riotous"
"senbrua", "noiseless"
"senĉesa", "constant, lasting, sustained"
"sendependa", "independant"
"senespera", "abysmal, desperate"
"senfama", "obscure"
"senfina", "everlasting"
"senfrukta", "barren"
"sengusta", "tasteless"
"senĝena", "free and easy"
"senhalta", "continuous"
"senhava", "miserable, needy"
"senhelpa", "helpless"
"senhoma", "gaunt"
"senhonta", "abandoned"
"senimposta", "duty-free, tax-free"
"seninfana", "childless"
"senintenca", "unintentional"
"seninterrompa", "continuous"
"senjunta", "seamless"
"senkonscia", "unconscious"
"senkonsola", "desolate"
"senkreskaĵa", "bleak"
"senkulpa", "guiltless, innocent"
"senkultura", "dreary"
"senkunkudra", "seamless"
"senlabora", "unemployed"
"senlima", "absolute"
"senmalica", "guileless, inoffensive"
"senmova", "motionless"
"sennoma", "anonymous, nameless, without a name"
"sennombra", "countless"
"senofica", "private"
"senpaga", "free"
"senpartia", "impartial"
"senpatra", "fatherless"
"senpinta", "blunt"
"sensacia", "lurid, sensational"
"sensama", "sensual, sensuous"
"sensanga", "bloodless"
"sensenca", "absurd"
"sensentigita", "numbed"
"sensignifa", "insignificant, meaningless"
"sensperta", "inexperienced"
"senspira", "breathless"
"senspiriga", "breath-taking"
"senŝirma", "bleak"
"sentaŭga", "good-for-nothing, useless"
"sentema", "sensitive"
"sentima", "bold, courageous, fearless"
"sentimenta", "sentimental"
"sentiva", "sensitive"
"senutila", "abortive, useless"
"senvalora", "worthless"
"senverva", "dull, lifeless, stodgy"
"sepa", "seventh"
"sepia", "sepia"
"sepsa", "infected, septic"
"serba", "Serb"
"serena", "serene, untroubled"
"seria", "serial"
"serioza", "earnest, serious, staid"
"servopreta", "obliging, ready, willing"
"sesa", "sixth"
"sesdeka", "sixtieth"
"severa", "severe, strict"
"sia", "her, his, its, their"
"siama", "Siamese"
"siberia", "Siberian"
"sicilia", "Sicilian"
"signifoplena", "significant"
"silenta", "silent"
"silka", "silk, silk-, silken, of silk"
"simetria", "symmetric"
"simfonia", "symphonic"
"simieca", "ape-like, apish, monkey-like"
"simila", "like, alike, similar"
"simiosimila", "ape-like, apish, monkey-like"
"simpatia", "sympathetic"
"simpla", "simple, straightforward"
"sincera", "above-board, sincere"
"sindona", "devoted, selfless"
"sindonema", "devoted, selfless"
"singapura", "Singaporean"
"singarda", "careful, cautious"
"singardema", "careful, cautious"
"sinĝena", "abashed, self-conscious, shy"
"sinĝenema", "shy"
"sinkrona", "synchronous"
"sinrega", "composed, restrained, self-possessed"
"sinretenema", "detached"
"siria", "Syrian"
"sistema", "systematic"
"skandinava", "Scandinavian"
"skeptika", "skeptical"
"skota", "Scottish"
"skriba", "written"
"skrupula", "scrupulous"
"slava", "Slavic"
"slavona", "Slavonian"
"slovaka", "Slovak"
"slovena", "Slovenian"
"smirga", "abrasive"
"snoba", "snobbish"
"sobra", "abstemious, sober, staid, temperate"
"socia", "social"
"sociala", "social"
"soifa", "thirsty"
"sola", "alone, only, sole, solitary"
"soleca", "lonely, solitary"
"solena", "ceremonious, solemn"
"solida", "firm, solid"
"solidara", "standing together"
"somala", "Somali, Somalian"
"sonora", "sonorous, sonourous"
"sopira", "longing"
"sopiranta", "anxious"
"sorba", "absorbent"
"sorĉa", "magic"
"sordida", "dirty, foul, nasty"
"sovaĝa", "savage, wild"
"soveta", "Soviet"
"sparta", "Spartan"
"speciala", "particular, special"
"specialcela", "ad hoc"
"specifa", "specific"
"specifika", "specific"
"spekulativa", "speculative"
"sperta", "experienced, expert"
"spiceca", "nutty"
"spirita", "spiritual"
"spiritforesta", "absent-minded"
"sponga", "spongy"
"spongeca", "spongy"
"spontana", "spontaneous"
"spontanea", "spontaneous"
"sporada", "sporadic"
"sprita", "lively, witty"
"spritresponda", "to the point"
"srilanka", "Sri Lankan"
"stabila", "stable"
"stana", "tin"
"stela", "sideral, star, star-, of a star"
"sterila", "sterile"
"stoika", "stoic, stoical"
"stranga", "odd, peculiar, strange"
"strategia", "strategic"
"streĉanta", "hard"
"streĉita", "strained"
"strikta", "tight"
"stulta", "foolish, stupid"
"stultega", "as stupid as an ass"
"subakva", "underwater"
"subfosa", "subversive"
"subita", "abrupt, sudden"
"subjektiva", "subjective"
"subtera", "underground"
"subtila", "subtle"
"subtrahebla", "deductible"
"subventra", "abdominal"
"suda", "south, southern"
"sudafrika", "South African"
"sudamerika", "South American"
"sudana", "Sudanese"
"sufiĉa", "enough, sufficient"
"sufiĉe granda", "fair, tidy"
"sufiĉega", "abundant"
"sufoka", "stifling, oppressive, sultry"
"sulfura", "sulfuric, sulphuric, sulphureous"
"suna", "solair, sun, sun-, of the sun"
"supera", "superior"
"superfantazia", "great"
"superfeliĉa", "overjoyed"
"superflua", "overflowing, superfluous"
"superrega", "of paramount importance, predominating"
"superstiĉa", "superstitious"
"supra", "upper"
"supraĵa", "superficial"
"supre menciita", "above, above-mentioned"
"supre nomita", "above, above-mentioned"
"suprestaranta", "above"
"surda", "deaf"
"surdmuta", "deaf and dumb"
"surgrimpebla", "mountable"
"surinama", "Surinamese"
"surirebla", "passable, practicable"
"surkreskata", "covered, grown over, overgrown"
"surpriza", "startling, surprising"
"surtera", "terrestrial"
"suspektema", "suspicious"
"suspektinda", "suspicious"
"suspendita", "in abeyance"
"suverena", "sovereign"
"svahila", "Swahili"
"svazia", "Swazi"
"sveda", "Swedish"
"svelta", "slender, slim"
"sveninta", "unconscious"
"svisa", "Swiss"
"ŝafida", "lamb, of lamb"
"ŝanceliĝanta", "hesitant"
"ŝanceliĝema", "indecisive"
"ŝarĝanta", "carrying, loaded with"
"ŝatinda", "likable"
"ŝaŭma", "effervescent, sparkling"
"ŝercema", "jocular, playful"
"ŝia", "her"
"ŝika", "chic"
"ŝima", "moldy, mouldy"
"ŝiriĝinta", "torn"
"ŝirita", "torn"
"ŝlosita", "locked"
"ŝokanta", "offensive"
"ŝparema", "thrifty"
"ŝtala", "steal, of steal"
"ŝtona", "metalled, stone"
"ŝtoniĝinta", "petrified"
"taja", "Thai"
"tajvana", "Taiwanese"
"talenta", "talented"
"talentplena", "gifted, talented"
"tanzania", "Tanzanian"
"tasmania", "Tasmanian"
"tatara", "Tatar"
"taŭga", "of use, suitable"
"teatra", "theatrical"
"teda", "boring, stodgy, tiresome"
"tede banala", "hackneyed, hard-worked, stale, trite, worn-out"
"teknika", "technical"
"tendenca", "biased, tendencious, tendentious"
"teni brulanta", "keep ... burning"
"teoria", "abstract"
"tera", "earthen, earthly, terrestrial"
"tergloba", "terrestrial"
"teritoria", "territorial"
"terura", "abysmal, dreadful, gruesome, horrible, terrible"
"terurega", "hideous, horrible, ghastly"
"teruriĝinta", "startled"
"terurita", "startled"
"tia", "such, such a, that kind of"
"tibeta", "Tibetan"
"tiea", "that ... over there"
"tilia", "lime, lime-, of a lime-tree"
"tima", "afraid"
"timema", "afraid, timid"
"timida", "shy"
"timiga", "horrible"
"timigita", "afraid, fearful"
"timtremiga", "gaunt, ghastly, gruesome, horrible"
"tinedifektita", "moth-eaten"
"tipa", "typical"
"titana", "titanic"
"totala", "overall, total"
"tra", "through"
"tradicia", "traditional"
"trafa", "striking"
"trafe dirita", "to the point"
"trafe reaganta", "to the point"
"tragedia", "tragedy"
"tragika", "tragic"
"trankvila", "calm, tranquil"
"transitiva", "transitive"
"transvala", "Transvaalian"
"transversa", "transverse"
"travidebla", "transparant"
"tremiga", "eerie, grisly, gruesome, macabre"
"tria", "third"
"triangula", "triangular"
"triba", "tribal"
"trinkebla", "drinkable"
"triobla", "triple"
"trista", "dismal, dreary, sad"
"triviala", "commonplace, course, vulgar"
"tro multa", "too much"
"troa", "undue"
"trodorlotita", "spoiled"
"trompa", "deceitful"
"trompita", "cheated, deceived"
"tropika", "tropical"
"truplena", "full of holes"
"tuja", "immediate"
"tumultema", "wanton"
"tunizia", "Tunisian"
"turka", "Turkish"
"turpa", "nasty, ugly"
"tuŝanta", "adjacent, adjoining, neighbouring"
"tuta", "entire, overall, whole"
"tute senviva", "stone-dead"
"tutkora", "cordial, whole-hearted"
"tutmonda", "worldwide"
"uganda", "Ugandan"
"ukraina", "Ukrainian"
"unika", "unique"
"universala", "general, universal, worldwide"
"universitata", "academic"
"unu kaj duona", "one and a half"
"unua", "first"
"unuanima", "unanimous"
"unueca", "unified"
"unuflanka", "unilateral"
"unuforma", "uniform"
"unuiĝinta", "united"
"unuobla", "single"
"unuopa", "single"
"unupersona", "one person"
"unutona", "monotonous"
"urba", "urban"
"urĝa", "pressing, urgent"
"urugvaja", "Uruguayan"
"usona", "American"
"utila", "advantageous, useful"
"utopia", "utopian"
"uzbeka", "Uzbek"
"uzebla", "of use, suitable"
"uzita", "used"
"vaka", "vacant"
"vaksflava", "as yellow as wax"
"valida", "valid"
"valona", "Walloon"
"valora", "valuable"
"vana", "abortive, futile, useless, vain"
"vanta", "conceited, frivolous, vain"
"varia", "variable"
"varma", "warm"
"varmega", "hot"
"varmeta", "lukewarm"
"vaska", "Basque"
"vasta", "extensive, spacious, vast, wide"
"vastega", "abysmal, immense"
"vatikana", "Vatican"
"vegetara", "vegetarian"
"velura", "velvet"
"veneca", "Venetian"
"venecia", "Venetian"
"venena", "poisonous"
"venerea", "venereal"
"venezuela", "Venezuelan"
"venonta", "next"
"ventra", "abdominal"
"vera", "true"
"verda", "green"
"vermborita", "unsound, worm-eaten"
"verŝajna", "likely, probable"
"vertikala", "vertical"
"verva", "lively, vivacious"
"via", "your"
"videbla", "visible"
"vidinda", "worth seeing"
"viena", "Vienna, Viennese"
"vigla", "alert, brisk, keen"
"vila", "hairy, shaggy"
"vintra", "winter, winter-, of the winter"
"violkolora", "violet"
"vira", "male, masculine"
"virga", "virgin, virginal"
"virina", "female"
"virseksa", "male"
"virtuala", "virtual"
"viŝebla", "washable"
"vitala", "vital"
"vitra", "glass"
"vitreca", "glassy"
"vivanta", "alive"
"vivoforta", "full of life, vital"
"vjetnama", "Vietnamese"
"vojaĝema", "inclined to travel"
"vojerarinta", "lost"
"volonta", "voluntary, willing"
"volupta", "voluptuous"
"vulgara", "common, everyday, vulgar"
"vundita", "injured, wounded"
"zambia", "Zambian"
"zelanda", "Zealand"
"zigzaga", "zigzag"
"zorga", "careful, tender"
"zorgplena", "anxious"
